#div1 {
height: 150px;
width: 400px;
margin: 20px;
border: 1px solid red;
padding: 10px;
}

20+1+10+150+10+1+20 = Height  = 212px
20+1+10+400+10+1+20 = Width   = 462px
1+10+400+10+1 = browserWidth  = 422px
1+10+150+10+1 = browserHeight = 172px

